\beamer@endinputifotherversion {3.36pt}
\select@language {english}
\beamer@sectionintoc {1}{R Tutorial}{2}{0}{1}
\beamer@sectionintoc {2}{Install Packages}{3}{0}{2}
\beamer@sectionintoc {3}{Version Control}{4}{0}{3}
\beamer@sectionintoc {4}{Hands On}{5}{0}{4}
