\beamer@endinputifotherversion {3.33pt}
\headcommand {\slideentry {0}{0}{1}{1/1}{}{0}}
\headcommand {\beamer@framepages {1}{1}}
\headcommand {\sectionentry {1}{Workshop}{2}{Workshop}{0}}
\headcommand {\beamer@sectionpages {1}{1}}
\headcommand {\beamer@subsectionpages {1}{1}}
\headcommand {\slideentry {1}{0}{2}{2/2}{}{0}}
\headcommand {\beamer@framepages {2}{2}}
\headcommand {\slideentry {1}{0}{3}{3/3}{}{0}}
\headcommand {\beamer@framepages {3}{3}}
\headcommand {\sectionentry {2}{R}{4}{R}{0}}
\headcommand {\beamer@sectionpages {2}{3}}
\headcommand {\beamer@subsectionpages {2}{3}}
\headcommand {\slideentry {2}{0}{4}{4/4}{}{0}}
\headcommand {\beamer@framepages {4}{4}}
\headcommand {\slideentry {2}{0}{5}{5/5}{}{0}}
\headcommand {\beamer@framepages {5}{5}}
\headcommand {\slideentry {2}{0}{6}{6/6}{}{0}}
\headcommand {\beamer@framepages {6}{6}}
\headcommand {\slideentry {2}{0}{7}{7/7}{}{0}}
\headcommand {\beamer@framepages {7}{7}}
\headcommand {\slideentry {2}{0}{8}{8/8}{}{0}}
\headcommand {\beamer@framepages {8}{8}}
\headcommand {\slideentry {2}{0}{9}{9/9}{}{0}}
\headcommand {\beamer@framepages {9}{9}}
\headcommand {\slideentry {2}{0}{10}{10/10}{}{0}}
\headcommand {\beamer@framepages {10}{10}}
\headcommand {\slideentry {2}{0}{11}{11/11}{}{0}}
\headcommand {\beamer@framepages {11}{11}}
\headcommand {\slideentry {2}{0}{12}{12/12}{}{0}}
\headcommand {\beamer@framepages {12}{12}}
\headcommand {\slideentry {2}{0}{13}{13/13}{}{0}}
\headcommand {\beamer@framepages {13}{13}}
\headcommand {\slideentry {2}{0}{14}{14/14}{}{0}}
\headcommand {\beamer@framepages {14}{14}}
\headcommand {\slideentry {2}{0}{15}{15/15}{}{0}}
\headcommand {\beamer@framepages {15}{15}}
\headcommand {\slideentry {2}{0}{16}{16/16}{}{0}}
\headcommand {\beamer@framepages {16}{16}}
\headcommand {\slideentry {2}{0}{17}{17/17}{}{0}}
\headcommand {\beamer@framepages {17}{17}}
\headcommand {\slideentry {2}{0}{18}{18/18}{}{0}}
\headcommand {\beamer@framepages {18}{18}}
\headcommand {\sectionentry {3}{Version Control}{19}{Version Control}{0}}
\headcommand {\beamer@sectionpages {4}{18}}
\headcommand {\beamer@subsectionpages {4}{18}}
\headcommand {\slideentry {3}{0}{19}{19/19}{}{0}}
\headcommand {\beamer@framepages {19}{19}}
\headcommand {\slideentry {3}{0}{20}{20/20}{}{0}}
\headcommand {\beamer@framepages {20}{20}}
\headcommand {\slideentry {3}{0}{21}{21/21}{}{0}}
\headcommand {\beamer@framepages {21}{21}}
\headcommand {\slideentry {3}{0}{22}{22/22}{}{0}}
\headcommand {\beamer@framepages {22}{22}}
\headcommand {\slideentry {3}{0}{23}{23/23}{}{0}}
\headcommand {\beamer@framepages {23}{23}}
\headcommand {\sectionentry {4}{File Preparation}{24}{File Preparation}{0}}
\headcommand {\beamer@sectionpages {19}{23}}
\headcommand {\beamer@subsectionpages {19}{23}}
\headcommand {\slideentry {4}{0}{24}{24/24}{}{0}}
\headcommand {\beamer@framepages {24}{24}}
\headcommand {\slideentry {4}{0}{25}{25/25}{}{0}}
\headcommand {\beamer@framepages {25}{25}}
\headcommand {\beamer@partpages {1}{25}}
\headcommand {\beamer@subsectionpages {24}{25}}
\headcommand {\beamer@sectionpages {24}{25}}
\headcommand {\beamer@documentpages {25}}
\headcommand {\def \inserttotalframenumber {25}}
