\beamer@endinputifotherversion {3.33pt}
\select@language {english}
\beamer@sectionintoc {1}{Workshop}{2}{0}{1}
\beamer@sectionintoc {2}{R}{4}{0}{2}
\beamer@sectionintoc {3}{Version Control}{19}{0}{3}
\beamer@sectionintoc {4}{File Preparation}{24}{0}{4}
