\beamer@endinputifotherversion {3.36pt}
\headcommand {\slideentry {0}{0}{1}{1/1}{}{0}}
\headcommand {\beamer@framepages {1}{1}}
\headcommand {\slideentry {0}{0}{2}{2/2}{}{0}}
\headcommand {\beamer@framepages {2}{2}}
\headcommand {\sectionentry {1}{Read In Data}{3}{Read In Data}{0}}
\headcommand {\beamer@sectionpages {1}{2}}
\headcommand {\beamer@subsectionpages {1}{2}}
\headcommand {\slideentry {1}{0}{1}{3/3}{}{0}}
\headcommand {\beamer@framepages {3}{3}}
\headcommand {\slideentry {1}{0}{2}{4/4}{}{0}}
\headcommand {\beamer@framepages {4}{4}}
\headcommand {\slideentry {1}{0}{3}{5/5}{}{0}}
\headcommand {\beamer@framepages {5}{5}}
\headcommand {\slideentry {1}{0}{4}{6/6}{}{0}}
\headcommand {\beamer@framepages {6}{6}}
\headcommand {\slideentry {1}{0}{5}{7/7}{}{0}}
\headcommand {\beamer@framepages {7}{7}}
\headcommand {\slideentry {1}{0}{6}{8/8}{}{0}}
\headcommand {\beamer@framepages {8}{8}}
\headcommand {\slideentry {1}{0}{7}{9/9}{}{0}}
\headcommand {\beamer@framepages {9}{9}}
\headcommand {\slideentry {1}{0}{8}{10/10}{}{0}}
\headcommand {\beamer@framepages {10}{10}}
\headcommand {\slideentry {1}{0}{9}{11/11}{}{0}}
\headcommand {\beamer@framepages {11}{11}}
\headcommand {\sectionentry {2}{Proc. and Normalization}{12}{Proc. and Normalization}{0}}
\headcommand {\beamer@sectionpages {3}{11}}
\headcommand {\beamer@subsectionpages {3}{11}}
\headcommand {\slideentry {2}{0}{1}{12/12}{}{0}}
\headcommand {\beamer@framepages {12}{12}}
\headcommand {\slideentry {2}{0}{2}{13/13}{}{0}}
\headcommand {\beamer@framepages {13}{13}}
\headcommand {\slideentry {2}{0}{3}{14/14}{}{0}}
\headcommand {\beamer@framepages {14}{14}}
\headcommand {\slideentry {2}{0}{4}{15/15}{}{0}}
\headcommand {\beamer@framepages {15}{15}}
\headcommand {\sectionentry {3}{PVCA}{16}{PVCA}{0}}
\headcommand {\beamer@sectionpages {12}{15}}
\headcommand {\beamer@subsectionpages {12}{15}}
\headcommand {\slideentry {3}{0}{1}{16/16}{}{0}}
\headcommand {\beamer@framepages {16}{16}}
\headcommand {\slideentry {3}{0}{2}{17/17}{}{0}}
\headcommand {\beamer@framepages {17}{17}}
\headcommand {\sectionentry {4}{Batch Effects}{18}{Batch Effects}{0}}
\headcommand {\beamer@sectionpages {16}{17}}
\headcommand {\beamer@subsectionpages {16}{17}}
\headcommand {\slideentry {4}{0}{1}{18/18}{}{0}}
\headcommand {\beamer@framepages {18}{18}}
\headcommand {\slideentry {4}{0}{2}{19/19}{}{0}}
\headcommand {\beamer@framepages {19}{19}}
\headcommand {\slideentry {4}{0}{3}{20/20}{}{0}}
\headcommand {\beamer@framepages {20}{20}}
\headcommand {\slideentry {4}{0}{4}{21/21}{}{0}}
\headcommand {\beamer@framepages {21}{21}}
\headcommand {\slideentry {4}{0}{5}{22/22}{}{0}}
\headcommand {\beamer@framepages {22}{22}}
\headcommand {\slideentry {4}{0}{6}{23/23}{}{0}}
\headcommand {\beamer@framepages {23}{23}}
\headcommand {\slideentry {4}{0}{7}{24/24}{}{0}}
\headcommand {\beamer@framepages {24}{24}}
\headcommand {\slideentry {4}{0}{8}{25/25}{}{0}}
\headcommand {\beamer@framepages {25}{25}}
\headcommand {\beamer@partpages {1}{25}}
\headcommand {\beamer@subsectionpages {18}{25}}
\headcommand {\beamer@sectionpages {18}{25}}
\headcommand {\beamer@documentpages {25}}
\headcommand {\def \inserttotalframenumber {25}}
